{
  "navigationBarTitleText": "商品详情",
  "component": true,
  "usingComponents": {
    "wxc-dialog": "/components/dialog/dialog",
    "confirm-dialog": "/components/confirm-recomend-dialog/dialog"
  }
}
